%
(PIECEDEMOLINUXCNC_HV_V03)
(MACHINE)
(  MODEL M3)
(  DESCRIPTION M3)
(T1  D=1. CR=0. - ZMIN=-1. - FLAT END MILL)
N10 G90 G94 G017 G91.1
N15 G021
(2D EBAUCHEPOCHE1)
N25 S45000 M3
N30 G54
G00 X6.8 Y1.85 Z2
N45 G00 Z0.1 
N50 G01 Z-0.2 F500
N55 G01 X7.94 Y0.33 F5000.
N60 G02 Y-0.33 I-0.44 J-0.33
N65 G01 X0.52 Y-10.223
N70 G02 X-0.52 I-0.52 J0.39
N75 G01 X-4.19 Y-5.33
N80 G02 Y5.33 I7.107 J5.33
N85 G01 X-0.52 Y10.223
N90 G02 X0.52 I0.52 J-0.39
N95 G01 X6.8 Y1.85
N100 G03 X6.924 Y1.846 I0.064 J0.048
N105 G01 X7.167 Y2.132
N110 G02 X7.214 Y2.159 I0.061 J-0.052
N115 G01 X7.537 Y2.213
N120 G03 X7.603 Y2.292 I-0.013 J0.079
N125 G01 Y2.309
N130 G03 X7.568 Y2.415 I-0.175 J0.
N135 G01 X1.904 Y9.967
N140 G03 X1.764 Y10.037 I-0.14 J-0.105
N145 G01 X1.694
N150 G03 X1.554 Y9.756 I0. J-0.175
N155 G01 X7.362 Y2.011
N160 G03 X7.603 Y2.092 I0.107 J0.08
N165 G01 Y2.292
N170 G02 X7.765 Y2.629 I0.431 J0.
N175 G03 X7.813 Y3. I-0.168 J0.21
N180 G01 X2.128 Y10.579
N195 G01 X0.
N200 G03 X-0.6 Y10.283 I0. J-0.75
N205 G01 X-4.27 Y5.39
N210 G03 Y-5.39 I7.187 J-5.39
N215 G01 X-0.6 Y-10.283
N220 G03 X0.6 I0.6 J0.45
N225 G01 X8.02 Y-0.39
N230 G03 X8.15 Y0. I-0.52 J0.39
N235 G01 Y2.547
N245 G01 X7.813 Y3.
N250 G03 X7.659 Y2.976 I-0.07 J-0.053
N255 G01 X7.526 Y2.592
N265 G02 X7.503 Y2.552 I-0.084 J0.026
N270 G01 X7.245 Y2.293
N275 G03 X7.237 Y2.178 I0.062 J-0.062
N280 G01 Z-0.4 F500.
N285 G01 X7.362 Y2.011 F5000.
N290 G03 X7.603 Y2.092 I0.107 J0.08
N295 G01 Y2.309
N300 G03 X7.568 Y2.415 I-0.175 J0.
N305 G01 X1.904 Y9.967
N310 G03 X1.764 Y10.037 I-0.14 J-0.105
N315 G01 X1.694
N320 G03 X1.554 Y9.756 I0. J-0.175
N325 G01 X7.237 Y2.178
N330 G02 X7.529 Y1.621 I-1.57 J-1.178
N335 G03 X8.15 Y1.722 I0.302 J0.101
N340 G01 Y2.547
N350 G01 X2.128 Y10.579
N365 G01 X0.
N370 G03 X-0.6 Y10.283 I0. J-0.75
N375 G01 X-4.27 Y5.39
N380 G03 Y-5.39 I7.187 J-5.39
N385 G01 X-0.6 Y-10.283
N390 G03 X0.6 I0.6 J0.45
N395 G01 X8.02 Y-0.39
N400 G03 X8.15 Y0. I-0.52 J0.39
N405 G01 Y1.722
N415 G01 X6.8 Y1.855
N430 G01 X7.94 Y0.33
N435 G02 Y-0.33 I-0.44 J-0.33
N440 G01 X0.52 Y-10.223
N445 G02 X-0.52 I-0.52 J0.39
N450 G01 X-4.19 Y-5.33
N455 G02 Y5.33 I7.107 J5.33
N460 G01 X-0.52 Y10.223
N465 G02 X0.52 I0.52 J-0.39
N470 G01 X6.798 Y1.852
N485 G01 Z-0.6 F500.
N490 G01 X7.94 Y0.33 F5000.
N495 G02 Y-0.33 I-0.44 J-0.33
N500 G01 X0.52 Y-10.223
N505 G02 X-0.52 I-0.52 J0.39
N510 G01 X-4.19 Y-5.33
N515 G02 Y5.33 I7.107 J5.33
N520 G01 X-0.52 Y10.223
N525 G02 X0.52 I0.52 J-0.39
N530 G01 X6.8 Y1.85
N535 G03 X6.924 Y1.846 I0.064 J0.048
N540 G01 X7.167 Y2.132
N545 G02 X7.214 Y2.159 I0.061 J-0.052
N550 G01 X7.537 Y2.213
N555 G03 X7.603 Y2.292 I-0.013 J0.079
N560 G01 Y2.309
N565 G03 X7.568 Y2.415 I-0.175 J0.
N570 G01 X1.904 Y9.967
N575 G03 X1.764 Y10.037 I-0.14 J-0.105
N580 G01 X1.694
N585 G03 X1.554 Y9.756 I0. J-0.175
N590 G01 X7.362 Y2.011
N595 G03 X7.603 Y2.092 I0.107 J0.08
N600 G01 Y2.292
N605 G02 X7.765 Y2.629 I0.431 J0.
N610 G03 X7.813 Y3. I-0.168 J0.21
N615 G01 X2.128 Y10.579
N630 G01 X0.
N635 G03 X-0.6 Y10.283 I0. J-0.75
N640 G01 X-4.27 Y5.39
N645 G03 Y-5.39 I7.187 J-5.39
N650 G01 X-0.6 Y-10.283
N655 G03 X0.6 I0.6 J0.45
N660 G01 X8.02 Y-0.39
N665 G03 X8.15 Y0. I-0.52 J0.39
N670 G01 Y2.547
N680 G01 X7.813 Y3.
N685 G03 X7.659 Y2.976 I-0.07 J-0.053
N690 G01 X7.526 Y2.592
N700 G02 X7.503 Y2.552 I-0.084 J0.026
N705 G01 X7.245 Y2.293
N710 G03 X7.237 Y2.178 I0.062 J-0.062
N715 G01 Z-0.8 F500.
N720 G01 X7.362 Y2.011 F5000.
N725 G03 X7.603 Y2.092 I0.107 J0.08
N730 G01 Y2.309
N735 G03 X7.568 Y2.415 I-0.175 J0.
N740 G01 X1.904 Y9.967
N745 G03 X1.764 Y10.037 I-0.14 J-0.105
N750 G01 X1.694
N755 G03 X1.554 Y9.756 I0. J-0.175
N760 G01 X7.237 Y2.178
N765 G02 X7.529 Y1.621 I-1.57 J-1.178
N770 G03 X8.15 Y1.722 I0.302 J0.101
N775 G01 Y2.547
N785 G01 X2.128 Y10.579
N800 G01 X0.
N805 G03 X-0.6 Y10.283 I0. J-0.75
N810 G01 X-4.27 Y5.39
N815 G03 Y-5.39 I7.187 J-5.39
N820 G01 X-0.6 Y-10.283
N825 G03 X0.6 I0.6 J0.45
N830 G01 X8.02 Y-0.39
N835 G03 X8.15 Y0. I-0.52 J0.39
N840 G01 Y1.722
N850 G01 X6.8 Y1.855
N865 G01 X7.94 Y0.33
N870 G02 Y-0.33 I-0.44 J-0.33
N875 G01 X0.52 Y-10.223
N880 G02 X-0.52 I-0.52 J0.39
N885 G01 X-4.19 Y-5.33
N890 G02 Y5.33 I7.107 J5.33
N895 G01 X-0.52 Y10.223
N900 G02 X0.52 I0.52 J-0.39
N905 G01 X6.798 Y1.852
N920 G01 Z-0.9 F500.
N925 G01 X7.94 Y0.33 F5000.
N930 G02 Y-0.33 I-0.44 J-0.33
N935 G01 X0.52 Y-10.223
N940 G02 X-0.52 I-0.52 J0.39
N945 G01 X-4.19 Y-5.33
N950 G02 Y5.33 I7.107 J5.33
N955 G01 X-0.52 Y10.223
N960 G02 X0.52 I0.52 J-0.39
N965 G01 X6.8 Y1.85
N970 G03 X6.924 Y1.846 I0.064 J0.048
N975 G01 X7.167 Y2.132
N980 G02 X7.214 Y2.159 I0.061 J-0.052
N985 G01 X7.537 Y2.213
N990 G03 X7.603 Y2.292 I-0.013 J0.079
N995 G01 Y2.309
N1000 G03 X7.568 Y2.415 I-0.175 J0.
N1005 G01 X1.904 Y9.967
N1010 G03 X1.764 Y10.037 I-0.14 J-0.105
N1015 G01 X1.694
N1020 G03 X1.554 Y9.756 I0. J-0.175
N1025 G01 X7.362 Y2.011
N1030 G03 X7.603 Y2.092 I0.107 J0.08
N1035 G01 Y2.292
N1040 G02 X7.765 Y2.629 I0.431 J0.
N1045 G03 X7.813 Y3. I-0.168 J0.21
N1050 G01 X2.128 Y10.579
N1065 G01 X0.
N1070 G03 X-0.6 Y10.283 I0. J-0.75
N1075 G01 X-4.27 Y5.39
N1080 G03 Y-5.39 I7.187 J-5.39
N1085 G01 X-0.6 Y-10.283
N1090 G03 X0.6 I0.6 J0.45
N1095 G01 X8.02 Y-0.39
N1100 G03 X8.15 Y0. I-0.52 J0.39
N1105 G01 Y2.547
N1115 G01 X7.813 Y3.
N1120 G00 Z2
(2D SURFACAGE)
N1130 G00 X-0.012 Y0.
N1135 G00 Z0.1
N1140 G01 Z-0.1 F500
N1145 G03 X0.033 Y-0.51 I2.932 J0. F444.
N1150 G03 X0.311 Y-0.576 I0.154 J0.027
N1155 G01 X0.602 Y-0.189
N1160 G03 Y0.189 I-0.252 J0.189
N1165 G01 X0.199 Y0.726
N1170 G03 X0.073 Y0.7 I-0.057 J-0.043
N1175 G03 X-0.012 Y0. I2.847 J-0.701
N1180 G02 X-0.283 Y-0.43 I-0.476 J0.
N1185 G03 X-0.498 Y-0.891 I0.172 J-0.36
N1190 G03 X-0.164 Y-1.72 I3.409 J0.891
N1195 G03 X0.186 Y-1.744 I0.182 J0.102
N1200 G01 X1.282 Y-0.282
N1205 G03 Y0.282 I-0.376 J0.282
N1210 G01 X0.155 Y1.785
N1215 G03 X-0.137 Y1.768 I-0.14 J-0.105
N1220 G03 X-0.498 Y-0.891 I3.048 J-1.768
N1225 G02 X-0.653 Y-1.361 I-0.44 J-0.115
N1230 G03 X-0.762 Y-1.844 I0.247 J-0.309
N1235 G03 X-0.378 Y-2.471 I3.519 J1.725
N1240 G02 X-0.282 Y-2.607 I-2.135 J-1.601
N1245 G03 X-0.186 Y-2.744 I2.231 J1.465
N1250 G03 X0.186 I0.186 J0.14
N1255 G01 X2.032 Y-0.282
N1260 G03 Y0.282 I-0.376 J0.282
N1265 G01 X0.186 Y2.744
N1270 G03 X-0.186 I-0.186 J-0.14
N1275 G03 X-1.151 Y0.168 I3.912 J-2.934
N1280 G03 X-0.762 Y-1.844 I3.908 J-0.288
N1285 G02 X-0.816 Y-2.338 I-0.417 J-0.204
N1290 G03 X-0.824 Y-2.834 I0.318 J-0.254
N1295 G02 X-0.512 Y-3.28 I-7.275 J-5.427
N1300 G03 X-0.186 Y-3.744 I7.586 J4.981
N1305 G03 X0.186 I0.186 J0.14
N1310 G01 X2.782 Y-0.282
N1315 G03 Y0.282 I-0.376 J0.282
N1320 G01 X0.186 Y3.744
N1325 G03 X-0.186 I-0.186 J-0.14
N1330 G03 X-0.512 Y3.28 I7.26 J-5.445
N1335 G02 X-0.838 Y2.816 I-7.587 J4.982
N1340 G03 Y-2.816 I3.754 J-2.816
N1345 G02 X-0.824 Y-2.834 I-7.261 J-5.446
N1350 G02 X-0.797 Y-3.371 I-0.386 J-0.288
N1355 G03 X-0.782 Y-3.908 I0.426 J-0.256
N1360 G02 X-0.748 Y-3.957 I-17.151 J-11.729
N1365 G03 X-0.186 Y-4.744 I17.183 J11.679
N1370 G03 X0.186 I0.186 J0.14
N1375 G01 X3.532 Y-0.282
N1380 G03 Y0.282 I-0.376 J0.282
N1385 G01 X0.186 Y4.744
N1390 G03 X-0.186 I-0.186 J-0.14
N1395 G03 X-0.748 Y3.957 I16.621 J-12.466
N1400 G02 X-1.31 Y3.17 I-17.184 J11.68
N1405 G03 Y-3.17 I4.227 J-3.17
N1410 G02 X-0.782 Y-3.908 I-16.622 J-12.467
N1415 G02 X-0.769 Y-4.437 I-0.402 J-0.275
N1420 G03 X-0.749 Y-4.967 I0.406 J-0.25
N1425 G01 X-0.186 Y-5.744
N1430 G03 X0.186 I0.186 J0.14
N1435 G01 X4.282 Y-0.282
N1440 G03 Y0.282 I-0.376 J0.282
N1445 G01 X0.186 Y5.744
N1450 G03 X-0.186 I-0.186 J-0.14
N1455 G03 X-0.988 Y4.637 I33.214 J-24.91
N1460 G02 X-1.79 Y3.53 I-34.019 J23.806
N1465 G03 Y-3.53 I4.707 J-3.53
N1470 G01 X-0.749 Y-4.967
N1475 G02 X-0.727 Y-5.5 I-0.391 J-0.283
N1480 G03 X-0.705 Y-6.034 I0.41 J-0.25
N1485 G01 X-0.186 Y-6.744
N1490 G03 X0.186 I0.186 J0.14
N1495 G01 X5.032 Y-0.282
N1500 G03 Y0.282 I-0.376 J0.282
N1505 G01 X0.186 Y6.744
N1510 G03 X-0.186 I-0.186 J-0.14
N1515 G01 X-2.27 Y3.89
N1520 G03 Y-3.89 I5.187 J-3.89
N1525 G01 X-0.705 Y-6.034
N1530 G02 X-0.681 Y-6.572 I-0.392 J-0.287
N1535 G03 X-0.658 Y-7.11 I0.411 J-0.252
N1540 G03 X-0.186 Y-7.744 I83.937 J61.965
N1545 G03 X0.186 I0.186 J0.14
N1550 G01 X5.782 Y-0.282
N1555 G03 Y0.282 I-0.376 J0.282
N1560 G01 X0.186 Y7.744
N1565 G03 X-0.186 I-0.186 J-0.14
N1570 G01 X-2.75 Y4.25
N1575 G03 Y-4.25 I5.667 J-4.25
N1580 G02 X-1.468 Y-5.997 I-83.479 J-62.609
N1585 G03 X-0.658 Y-7.11 I84.747 J60.852
N1590 G02 X-0.632 Y-7.645 I-0.388 J-0.287
N1595 G03 X-0.607 Y-8.18 I0.412 J-0.249
N1600 G03 X-0.186 Y-8.744 I117.544 J87.28
N1605 G03 X0.186 I0.186 J0.14
N1610 G01 X6.532 Y-0.282
N1615 G03 Y0.282 I-0.376 J0.282
N1620 G01 X0.186 Y8.744
N1625 G03 X-0.186 I-0.186 J-0.14
N1630 G01 X-3.23 Y4.61
N1635 G03 Y-4.61 I6.147 J-4.61
N1640 G02 X-1.708 Y-6.677 I-117.147 J-87.861
N1645 G03 X-0.607 Y-8.18 I118.646 J85.777
N1650 G02 X-0.577 Y-8.725 I-0.397 J-0.295
N1655 G03 X-0.548 Y-9.27 I0.422 J-0.25
N1660 G01 X-0.08 Y-9.893
N1665 G03 X0.08 I0.08 J0.06
N1670 G01 X7.5 Y0.
N1675 G01 X0.08 Y9.893
N1680 G03 X-0.08 I-0.08 J-0.06
N1685 G01 X-3.75 Y5.
N1690 G03 Y-5. I6.667 J-5.
N1695 G01 X-0.548 Y-9.27
N1700 G00 Z2.
(2D FINITIONPOCHE1)
N1710 G00 X6.76 Y1.82
N1715 G00 Z0.1
N1720 G01 Z-1 F500
N1725 G01 X7.9 Y0.3 F444.
N1730 G02 Y-0.3 I-0.4 J-0.3
N1735 G01 X0.48 Y-10.193
N1740 G02 X-0.48 I-0.48 J0.36
N1745 G01 X-4.15 Y-5.3
N1750 G02 Y5.3 I7.067 J5.3
N1755 G01 X-0.48 Y10.193
N1760 G02 X0.48 I0.48 J-0.36
N1765 G01 X6.76 Y1.82
N1775 G01 X7.198 Y2.149
N1785 G01 X7.416 Y1.858
N1790 G03 X7.652 Y1.936 I0.105 J0.079
N1795 G01 Y2.307
N1800 G03 X7.606 Y2.446 I-0.231 J0.
N1805 G01 X1.945 Y9.994
N1810 G03 X1.761 Y10.086 I-0.184 J-0.138
N1815 G01 X1.589
N1820 G03 X1.451 Y9.811 I0. J-0.172
N1825 G01 X7.198 Y2.149
N1830 G02 X7.518 Y1.537 I-1.724 J-1.293
N1835 G03 X8.2 Y1.648 I0.332 J0.111
N1840 G01 Y2.567
N1845 G01 X2.15 Y10.633
N1850 G01 X0.
N1855 G03 X-0.64 Y10.313 I0. J-0.8
N1860 G01 X-4.31 Y5.42
N1865 G03 Y-5.42 I7.227 J-5.42
N1870 G01 X-0.64 Y-10.313
N1875 G03 X0.64 I0.64 J0.48
N1880 G01 X8.06 Y-0.42
N1885 G03 X8.2 Y0. I-0.56 J0.42
N1890 G01 Y1.648
N1895 G00 Z2.
(2D POCHES23)
N1905 G00 X0.295 Y-3.
N1910 G00 Z0.1
N1915 G01 Z-0.2 F500
N1920 G01 Y-2.94 F272.
N1925 G03 X0.06 Y-2.705 I-0.235 J0.
N1930 G01 X-0.06
N1935 G03 X-0.295 Y-2.94 I0. J-0.235
N1940 G01 Y-3.06
N1945 G03 X-0.06 Y-3.295 I0.235 J0.
N1950 G01 X0.06
N1955 G03 X0.295 Y-3.06 I0. J0.235
N1960 G01 Y-3.
N1965 G02 X0.629 Y-2.635 I0.367 J0.
N1970 G03 X0.744 Y-2.153 I-0.023 J0.26
N1975 G03 X0.576 Y-2.105 I-0.168 J-0.271
N1980 G01 X-0.58
N1985 G03 X-0.895 Y-2.42 I0. J-0.315
N1990 G01 Y-3.576
N1995 G03 X-0.576 Y-3.895 I0.319 J0.
N2000 G01 X0.576
N2005 G03 X0.895 Y-3.576 I0. J0.319
N2010 G01 Y-2.424
N2015 G03 X0.744 Y-2.153 I-0.319 J0.
N2020 G02 X0.418 Y-1.777 I0.441 J0.711
N2025 G03 X0.002 Y-1.505 I-0.416 J-0.182
N2030 G01 X-1.18
N2035 G03 X-1.495 Y-1.82 I0. J-0.315
N2040 G01 Y-4.176
N2045 G03 X-1.176 Y-4.495 I0.319 J0.
N2050 G01 X1.176
N2055 G03 X1.495 Y-4.176 I0. J0.319
N2060 G01 Y-1.824
N2065 G03 X1.176 Y-1.505 I-0.319 J0.
N2070 G01 X0.002
N2075 G02 X-0.452 Y-1.202 I0. J0.492
N2080 G03 X-0.905 Y-0.9 I-0.454 J-0.189
N2085 G01 X-2.1
N2090 G01 Y-5.1
N2095 G01 X2.1
N2100 G01 Y-0.9
N2105 G01 X-0.905
N2110 G00 Z2.
N2115 G00 X0. Y3.295
N2116 G00 Z0.1
N2120 G01 Z-0.2 F500.
N2125 G01 X-0.06 F1000
N2130 G03 X-0.295 Y3.06 I0. J-0.235
N2135 G01 Y2.94
N2140 G03 X-0.06 Y2.705 I0.235 J0.
N2145 G01 X0.06
N2150 G03 X0.295 Y2.94 I0. J0.235
N2155 G01 Y3.06
N2160 G03 X0.06 Y3.295 I-0.235 J0.
N2165 G01 X0.
N2170 G02 X-0.365 Y3.629 I0. J0.367
N2175 G03 X-0.847 Y3.744 I-0.26 J-0.023
N2180 G03 X-0.895 Y3.576 I0.271 J-0.168
N2185 G01 Y2.424
N2190 G03 X-0.576 Y2.105 I0.319 J0.
N2195 G01 X0.576
N2200 G03 X0.895 Y2.424 I0. J0.319
N2205 G01 Y3.576
N2210 G03 X0.576 Y3.895 I-0.319 J0.
N2215 G01 X-0.576
N2220 G03 X-0.847 Y3.744 I0. J-0.319
N2225 G02 X-1.223 Y3.418 I-0.711 J0.441
N2230 G03 X-1.495 Y3.002 I0.182 J-0.416
N2235 G01 Y1.824
N2240 G03 X-1.176 Y1.505 I0.319 J0.
N2245 G01 X1.176
N2250 G03 X1.495 Y1.824 I0. J0.319
N2255 G01 Y4.176
N2260 G03 X1.176 Y4.495 I-0.319 J0.
N2265 G01 X-1.176
N2270 G03 X-1.495 Y4.176 I0. J-0.319
N2275 G01 Y3.002
N2280 G02 X-1.798 Y2.548 I-0.492 J0.
N2285 G03 X-2.1 Y2.095 I0.189 J-0.454
N2290 G01 Y0.9
N2295 G01 X2.1
N2300 G01 Y5.1
N2305 G01 X-2.1
N2310 G01 Y2.095
N2315 G00 Z2.
N2325 M9
N2340 M30
%
